%Radiative efficiencies taken from IPCC AR4. To be used with mr_radiative_forcing.pro. Written by Matt Rigby University of Bristol.,,
Gas,Radiative Efficiency (W/m2/ppX),Reference (ppX)
CO2,5.35,278
CH4,0.036,700
N2O,0.12,270
CFC-11,0.25,0
CFC-12,0.32,0
CFC-13,0.25,0
CFC-113,0.3,0
CFC-113a,0.3,0
CFC-114,0.31,0
CH3CCl3,0.06,0
HCFC-21,0.14,0
HCFC-22,0.2,0
HCFC-31,0.14,0
HCFC-123,0.14,0
HCFC-124,0.22,0
HCFC-133a,0.15,0
HCFC-141b,0.14,0
HCFC-142b,0.2,0
CCl4,0.13,0
HFC-23,0.19,0
HFC-32,0.11,0
HFC-125,0.23,0
HFC-134a,0.16,0
HFC-143a,0.13,0
HFC-152a,0.09,0
HFC-227ea,0.26,0
HFC-236fa,0.28,0
HFC-245fa,0.28,0
HFC-365mfc,0.21,0
SF6,0.52,0
SO2F2,0.196,0
CF4,0.1,45
C2F6,0.26,0
C3F8,0.26,0
c-C4F8,0.32,0
C4F10,0.33,0
C5F12,0.41,0
C6F14,0.49,0
C7F16,0.48,0
C8F18,0.57,0
NF3,0.21,0
CH3Cl,0.01,0
CHCl3,0.11,0
CH2Cl2,0.03,0
CFC-115,0.18,0
H-1211,0.3,0
H-1301,0.32,0
H-2311,0.13,0
H-2402,0.33,0
CH3Br,0.01,0
CH3I,0.01,0
PCE,0.01,0
Desflurane,0.45,0
Isoflurane,0.42,0
Sevoflurane,0.37,0
